<svg xmlns="http://www.w3.org/2000/svg" viewBox="0 0 24 24">
  <path fill="#d9261c" fill-rule="evenodd" d="M11.96 1.143c6.022 0 10.934 4.911 10.934 10.933S17.982 23.01 11.96 23.01c-6.022 0-10.933-4.912-10.933-10.934 0-6.022 4.911-10.933 10.933-10.933zm-2.91.361L9.826.376l1.01.8.73-.87.61.799 1.176-.87.446 1.034 1.223-.705.423 1.152 1.387-.353.094.94 1.175-.375.211 1.198 1.082-.305-.047 1.199 1.222-.165-.07 1.316 1.386-.07-.446 1.01.94.353-.306.94 1.246.33-.728.846 1.198.517-.846.8L24 10.46l-.846.541.634.611-.822.611.799.776-.8.611.73.846-.847.283.611.893-1.01.282.517.964-.94.07.329 1.152-1.2.211.071 1.246-.964.094v1.152H19.3l-.212 1.152-1.246-.494-.023 1.387-1.152-.493-.423 1.08-1.246-.775-.611 1.081-.964-.681-.893.94-.94-.729-1.082.682-.752-.846-.964.517-.658-.987-1.316.329.094-1.082-1.458.282.024-1.151-1.081.423v-1.34l-1.41-.141.422-.846-1.198-.188.376-1.058-1.082-.118.47-1.01-1.057-.283.658-.916-1.105-.165.682-.682-.846-.446.705-.8-.846-.517.822-.517L0 11.706l1.058-.658-.8-.823.847-.258-.47-.8.634-.188-.446-.87.846-.281-.235-1.176.917-.047-.353-1.246 1.199-.023.047-1.34.987.188.118-1.105 1.104.094.118-1.057 1.034.376.188-1.105 1.105.447.588-.988"/>
  <path fill="#fff" fill-rule="evenodd" d="M12 1.184c6.022 0 10.933 4.912 10.933 10.934 0 6.022-4.911 10.933-10.933 10.933S1.067 18.14 1.067 12.118 5.978 1.184 12 1.184"/>
  <path fill="#193882" fill-rule="evenodd" d="M22.582 12.118c0 5.815-4.763 10.578-10.586 10.578-5.815 0-10.578-4.763-10.578-10.578 0-5.816 4.763-10.579 10.578-10.579 5.823 0 10.586 4.763 10.586 10.579zm-.507 0c0 3.43-1.734 6.481-4.377 8.299-.424-.765-.765-1.068-.962-1.939.394-.136.583-.174.947-.378.174-.091.333-.25.272-.53-.053-.213.03-.47.152-.621.144-.175.204-.334.129-.53-.06-.152-.015-.364.136-.44.379-.189.136-.56.379-.878.204-.265.454-.576.174-.87l.492-2.098c-.06-.023-.091-.038-.152-.06-.196.824-.302 1.233-.5 2.127-.325.106-.454.28-.688.59-.41.553-.94.871-1.674.97.015-.44.076-1.318.318-3.703l-.083-.015c-.152 1.128-.22 1.688-.371 2.81-.553.514-.825.771-1.378 1.279-.84-1.181-1.439-2.014-2.348-2.719.258-.75.379-1.12.599-1.81-.31.016-.326.765-.629.97-.121.083-.174.235-.182.44-.015.257-.022.393-.03.65-.023.386-.432.417-.5.084-.075-.341-.113-.508-.189-.833-.848.037-1.204-.576-.97-1.166.342.12 1.235.22 1.137-.114-.432.015-1.06.045-.917-.174.106-.106.175-.167.31-.296.281.084.523.061.88.099.105.356.544.121.749-.25a21.4 21.4 0 0 0-1.393.045.678.678 0 0 1 .045-.454c-.114.023-.167.038-.28.06-.205.1-.25-.06-.19-.28.099-.34.061-.643.13-1.03.052-.348.363-.31.499-.09.28.431.931.401 1.56.03.182-.113.34-.007.424.121.144.235.326.5.121.795-.167.25-.19.53-.045.833.613 1.265 1.749.19 1.03-1.219 1.877-.5 2.937-.72 4.505-1.878.265-.197.644-.613-.318-.5-1.59.19-2.53.319-4.188.849-2.87.916-4.588.81-7.594.492.757-.258 1.128-.386 1.877-.651 2.969.12 4.688-.28 7.217-.94-.81.023-1.212.039-2.03.069-.446-2.105-.696-3.287-1.325-5.18 5.157.424 9.23 4.778 9.23 10.034zM3.273 17.123a9.89 9.89 0 0 1-1.355-5.005c0-4.597 3.127-8.504 7.367-9.693-.287 1.992-.454 3.196-.393 5.339-1.97.37-2.908.492-4.672 1.014-.81.235-.917.53-.235.704 1.5.371 2.749.341 4.467.432.023.204.038.303.061.5-1.22.802.25 2.658.78.734.288.364.409.735.318 1.235-.045.234-.265.552-.629.348-.22-.129-.53-.22-.81 0-.333.257-.439.37-.81.72-.432.385-.939.325-1.5.9-1.067 1.098-1.59 1.697-2.589 2.772zm5.3-6.46c-.34.319-.37.675-.257.91.083.189.31.264.447.128.19-.19.25-.394.318-.659-.174-.113-.318-.28-.507-.378zm1.757-.855c-.197-.129-.257-.288-.484-.318-.47-.06-.742.25-.5.69.114.219.197.34.416.438.175.076.28.091.394-.174.106-.25-.106-.53.174-.636zm3.574.75c.22 0 .379-.265.53-.485.22.22.22.454.19.765-.038.378-.515.59-.621.363-.106-.227-.114-.424-.099-.643zm-3.218.136a.413.413 0 0 1-.325.19c-.122 0 0-.16.06-.25.106-.16.16-.22.28-.22.122 0 .053.19-.015.28zm7.216 1.234c0 .091-.068.16-.151.16a.155.155 0 0 1-.159-.16c0-.083.068-.151.159-.151.083 0 .151.068.151.151zm.879-.015c0 .091-.068.16-.16.16a.154.154 0 0 1-.15-.16c0-.083.068-.159.15-.159a.16.16 0 0 1 .16.16zm-.28.629c0 .06-.053.106-.114.106a.104.104 0 0 1-.106-.106c0-.061.046-.114.106-.114s.114.053.114.114zm-.56-.03c0 .052-.054.105-.114.105a.108.108 0 0 1-.106-.106c0-.06.045-.113.106-.113.06 0 .113.053.113.113zm-.63-.114c0 .053-.045.098-.09.098a.1.1 0 0 1-.098-.098c0-.053.045-.091.098-.091.045 0 .09.038.09.09zm-.113.704c0 .06-.045.114-.106.114-.06 0-.106-.054-.106-.114 0-.06.046-.106.106-.106s.106.045.106.106zm.72.083c0 .076-.061.137-.137.137-.083 0-.144-.061-.144-.137a.14.14 0 0 1 .144-.144c.076 0 .137.06.137.144zm.393.326a.114.114 0 0 1-.106.106c-.06 0-.113-.053-.113-.106 0-.06.053-.114.113-.114.053 0 .106.053.106.114zm-.825.076a.16.16 0 0 1-.159.159.154.154 0 0 1-.151-.16c0-.083.068-.15.151-.15.083 0 .159.067.159.15zm.432.31c0 .068-.053.129-.122.129a.133.133 0 0 1-.128-.129c0-.068.06-.121.128-.121a.12.12 0 0 1 .122.121zm-.56.235c0 .083-.061.144-.137.144a.144.144 0 0 1-.144-.144c0-.076.068-.137.144-.137.076 0 .136.061.136.137zm.484.325c0 .076-.053.13-.121.13a.123.123 0 0 1-.129-.13c0-.068.053-.12.129-.12a.12.12 0 0 1 .12.12zm-.47.394c0 .053-.037.091-.09.091a.087.087 0 0 1-.091-.09c0-.054.038-.092.09-.092.054 0 .091.038.091.091zM13.98 17.6c-.045.734 0 1.234.083 1.999.03.333.28.401.485.083.167-.265.235-.409.416-.659.144-.189.25-.462.614-.5.78-.075 1.393-.31 1.969-.53.242-.09.265-.295.204-.56-.068-.272-.204-.378-.348-.628-.114-.212.03-.41.174-.5.674-.424.909-1 1.31-1.62.272-.417-.242-.341-.356-.25-.25.197-.356.378-.545.636-.129.174-.318.272-.53.454-.538.19-.803.28-1.333.47-.06.022-.121-.13-.06-.16.083-.037.189 0 .204-.09.023-.22.038-.334.06-.546.008-.09-.136-.159-.204-.098-.379.356-.56.538-.939.893-.151.144-.204.235-.326.41-.348.476-.522.719-.878 1.196"/>
  <path fill="none" stroke="#1f1917" stroke-miterlimit="10" stroke-width=".27003794" d="M11.975 1.112c6.048 0 10.98 4.933 10.98 10.98 0 6.049-4.932 10.982-10.98 10.982S.994 18.14.994 12.093s4.933-10.98 10.98-10.98z"/>
</svg>
